Library\Bee\artifacts\mvdfrm\Unity.InputSystem.ref.dll_A68D62E7CAD6F73F.mvfrm
Library\Bee\artifacts\mvdfrm\Unity.Services.Core.Analytics.ref.dll_E84FE1FF6A5B9BFD.mvfrm
Library\Bee\artifacts\mvdfrm\Unity.Services.Core.Environments.ref.dll_50259CEADBD40C8F.mvfrm
Library\Bee\artifacts\mvdfrm\Unity.Services.Core.ref.dll_F29AA8C9DCE0DF95.mvfrm
Library\Bee\artifacts\mvdfrm\Unity.Subsystem.Registration.ref.dll_656DBC2FA573C798.mvfrm
Library\Bee\artifacts\mvdfrm\Unity.TextMeshPro.ref.dll_2E02C3A973BC9999.mvfrm
Library\Bee\artifacts\mvdfrm\Unity.Timeline.ref.dll_717A1A60C4FD3D71.mvfrm
Library\Bee\artifacts\mvdfrm\Unity.Tutorials.Core.ref.dll_9189C79FF6850D28.mvfrm
Library\Bee\artifacts\mvdfrm\Unity.VisualScripting.Core.ref.dll_3AE196041A9B4C56.mvfrm
Library\Bee\artifacts\mvdfrm\Unity.VisualScripting.Flow.ref.dll_81F2765A9CA4C105.mvfrm
Library\Bee\artifacts\mvdfrm\Unity.VisualScripting.State.ref.dll_805FF05210CD9DE0.mvfrm
Library\Bee\artifacts\mvdfrm\Unity.XR.ARFoundation.ref.dll_7009FF22288EE9CE.mvfrm
Library\Bee\artifacts\mvdfrm\Unity.XR.ARKit.FaceTracking.ref.dll_CABB74E6B3AEB387.mvfrm
Library\Bee\artifacts\mvdfrm\Unity.XR.ARKit.ref.dll_821CEDEF52829041.mvfrm
Library\Bee\artifacts\mvdfrm\Unity.XR.ARSubsystems.ref.dll_0A8DEE078833F36F.mvfrm
Library\Bee\artifacts\mvdfrm\Unity.XR.InteractionSubsystems.ref.dll_26112CAAEFFFBC62.mvfrm
Library\Bee\artifacts\mvdfrm\Unity.XR.Management.ref.dll_1FCB9FC744BC0DCD.mvfrm
Library\Bee\artifacts\mvdfrm\Unity.XR.OpenXR.Features.ConformanceAutomation.ref.dll_69BD5CCB45762F21.mvfrm
Library\Bee\artifacts\mvdfrm\Unity.XR.OpenXR.Features.OculusQuestSupport.ref.dll_84AA04067A3A8057.mvfrm
Library\Bee\artifacts\mvdfrm\Unity.XR.OpenXR.ref.dll_364CE47D4ECCC41E.mvfrm
Library\Bee\artifacts\mvdfrm\UnityEngine.SpatialTracking.ref.dll_BC9B6A2A05F8D093.mvfrm
Library\Bee\artifacts\mvdfrm\UnityEngine.UI.ref.dll_185BE6B90A175B42.mvfrm
Library\Bee\artifacts\mvdfrm\UnityEngine.XR.LegacyInputHelpers.ref.dll_223A5B90BC492440.mvfrm
Library\Bee\artifacts\mvdfrm\UnityEngine.AccessibilityModule.dll_29AEFE8D2026E617.mvfrm
Library\Bee\artifacts\mvdfrm\UnityEngine.AIModule.dll_1B6423CDDDB16EB3.mvfrm
Library\Bee\artifacts\mvdfrm\UnityEngine.AndroidJNIModule.dll_C59C5CE13ACC8DF1.mvfrm
Library\Bee\artifacts\mvdfrm\UnityEngine.AnimationModule.dll_EEC76C59B99DE6FD.mvfrm
Library\Bee\artifacts\mvdfrm\UnityEngine.ARModule.dll_D4D6E8D13ACECD7C.mvfrm
Library\Bee\artifacts\mvdfrm\UnityEngine.AssetBundleModule.dll_4F02C57BC7D26FCB.mvfrm
Library\Bee\artifacts\mvdfrm\UnityEngine.AudioModule.dll_3CC1D363283DC0AF.mvfrm
Library\Bee\artifacts\mvdfrm\UnityEngine.ClothModule.dll_A3AA305E025A9F93.mvfrm
Library\Bee\artifacts\mvdfrm\UnityEngine.CoreModule.dll_8B02DFE2AE6D5D6A.mvfrm
Library\Bee\artifacts\mvdfrm\UnityEngine.CrashReportingModule.dll_ABAB4305B05F7742.mvfrm
Library\Bee\artifacts\mvdfrm\UnityEngine.DirectorModule.dll_FF71016D5572B607.mvfrm
Library\Bee\artifacts\mvdfrm\UnityEngine.dll_E2D11C9059B7100B.mvfrm
Library\Bee\artifacts\mvdfrm\UnityEngine.DSPGraphModule.dll_04C262D6C7D38728.mvfrm
Library\Bee\artifacts\mvdfrm\UnityEngine.GameCenterModule.dll_EFE9A6FC010D7EE2.mvfrm
Library\Bee\artifacts\mvdfrm\UnityEngine.GIModule.dll_B3A06CDB796056CD.mvfrm
Library\Bee\artifacts\mvdfrm\UnityEngine.GridModule.dll_6873FBD0C6C1F361.mvfrm
Library\Bee\artifacts\mvdfrm\UnityEngine.HotReloadModule.dll_70102A5F94D1027F.mvfrm
Library\Bee\artifacts\mvdfrm\UnityEngine.ImageConversionModule.dll_47F7AAE3CCB8CE2A.mvfrm
Library\Bee\artifacts\mvdfrm\UnityEngine.IMGUIModule.dll_752172C9EE6F5490.mvfrm
Library\Bee\artifacts\mvdfrm\UnityEngine.InputLegacyModule.dll_E047E09A5FC425BC.mvfrm
Library\Bee\artifacts\mvdfrm\UnityEngine.InputModule.dll_A3379B139E75E553.mvfrm
Library\Bee\artifacts\mvdfrm\UnityEngine.JSONSerializeModule.dll_89C687C91F6246A1.mvfrm
Library\Bee\artifacts\mvdfrm\UnityEngine.LocalizationModule.dll_D87962D4EF828634.mvfrm
Library\Bee\artifacts\mvdfrm\UnityEngine.ParticleSystemModule.dll_FEBD8C521E7102D0.mvfrm
Library\Bee\artifacts\mvdfrm\UnityEngine.PerformanceReportingModule.dll_0E9036E5C848DC29.mvfrm
Library\Bee\artifacts\mvdfrm\UnityEngine.Physics2DModule.dll_3B6D5C4A5A9ADE92.mvfrm
Library\Bee\artifacts\mvdfrm\UnityEngine.PhysicsModule.dll_734039596247E760.mvfrm
Library\Bee\artifacts\mvdfrm\UnityEngine.ProfilerModule.dll_31B73AA3EECC3D14.mvfrm
Library\Bee\artifacts\mvdfrm\UnityEngine.RuntimeInitializeOnLoadManagerInitializerModule.dll_2DC171850980735B.mvfrm
Library\Bee\artifacts\mvdfrm\UnityEngine.ScreenCaptureModule.dll_A3AE354E33CE7303.mvfrm
Library\Bee\artifacts\mvdfrm\UnityEngine.SharedInternalsModule.dll_CC08E9B943E6C97A.mvfrm
Library\Bee\artifacts\mvdfrm\UnityEngine.SpriteMaskModule.dll_D916198C227D145C.mvfrm
Library\Bee\artifacts\mvdfrm\UnityEngine.SpriteShapeModule.dll_6863F2D67D74A7D5.mvfrm
Library\Bee\artifacts\mvdfrm\UnityEngine.StreamingModule.dll_A35C59AA09259E3B.mvfrm
Library\Bee\artifacts\mvdfrm\UnityEngine.SubstanceModule.dll_80076DF354789C49.mvfrm
Library\Bee\artifacts\mvdfrm\UnityEngine.SubsystemsModule.dll_43C37FEDF0C4FC6F.mvfrm
Library\Bee\artifacts\mvdfrm\UnityEngine.TerrainModule.dll_8D86B4C83806304E.mvfrm
Library\Bee\artifacts\mvdfrm\UnityEngine.TerrainPhysicsModule.dll_FF38352537B3FD5D.mvfrm
Library\Bee\artifacts\mvdfrm\UnityEngine.TextCoreFontEngineModule.dll_9081C78631D9CFA8.mvfrm
Library\Bee\artifacts\mvdfrm\UnityEngine.TextCoreTextEngineModule.dll_D869FDF7C15D88C6.mvfrm
Library\Bee\artifacts\mvdfrm\UnityEngine.TextRenderingModule.dll_CCEDA758EB05F2F8.mvfrm
Library\Bee\artifacts\mvdfrm\UnityEngine.TilemapModule.dll_2C831C494FC31157.mvfrm
Library\Bee\artifacts\mvdfrm\UnityEngine.TLSModule.dll_8E2D28E0CD696034.mvfrm
Library\Bee\artifacts\mvdfrm\UnityEngine.UIElementsModule.dll_4801E155F3F13866.mvfrm
Library\Bee\artifacts\mvdfrm\UnityEngine.UIElementsNativeModule.dll_5DD2CD61B7B8A6FD.mvfrm
Library\Bee\artifacts\mvdfrm\UnityEngine.UIModule.dll_16D7C1FB39F8745F.mvfrm
Library\Bee\artifacts\mvdfrm\UnityEngine.UmbraModule.dll_B7967F7BB5646C22.mvfrm
Library\Bee\artifacts\mvdfrm\UnityEngine.UNETModule.dll_1DA927CBFB7C52E3.mvfrm
Library\Bee\artifacts\mvdfrm\UnityEngine.UnityAnalyticsModule.dll_1E5CFD1BCA9854CC.mvfrm
Library\Bee\artifacts\mvdfrm\UnityEngine.UnityConnectModule.dll_07EFA77BA106C120.mvfrm
Library\Bee\artifacts\mvdfrm\UnityEngine.UnityCurlModule.dll_21E40D8B29B1D8EA.mvfrm
Library\Bee\artifacts\mvdfrm\UnityEngine.UnityTestProtocolModule.dll_133D0EED99E86258.mvfrm
Library\Bee\artifacts\mvdfrm\UnityEngine.UnityWebRequestAssetBundleModule.dll_92DC696357BB309D.mvfrm
Library\Bee\artifacts\mvdfrm\UnityEngine.UnityWebRequestAudioModule.dll_868C8AC44EB3A6C1.mvfrm
Library\Bee\artifacts\mvdfrm\UnityEngine.UnityWebRequestModule.dll_5996B28DD7AD68A9.mvfrm
Library\Bee\artifacts\mvdfrm\UnityEngine.UnityWebRequestTextureModule.dll_598B14184B3C0EB6.mvfrm
Library\Bee\artifacts\mvdfrm\UnityEngine.UnityWebRequestWWWModule.dll_A32C4353B11D4532.mvfrm
Library\Bee\artifacts\mvdfrm\UnityEngine.VehiclesModule.dll_7733FAECCF9C85A2.mvfrm
Library\Bee\artifacts\mvdfrm\UnityEngine.VFXModule.dll_0F0BC14FA3D6C9A1.mvfrm
Library\Bee\artifacts\mvdfrm\UnityEngine.VideoModule.dll_61CB57CDEACFDC54.mvfrm
Library\Bee\artifacts\mvdfrm\UnityEngine.VRModule.dll_69A9E880DBB2F9D7.mvfrm
Library\Bee\artifacts\mvdfrm\UnityEngine.WindModule.dll_0151BB0B3FA3DBD3.mvfrm
Library\Bee\artifacts\mvdfrm\UnityEngine.XRModule.dll_9C68AB8564ED4735.mvfrm
Library\Bee\artifacts\mvdfrm\Unity.VisualScripting.Antlr3.Runtime.dll_035AF91987FD1F4A.mvfrm