{"msg":"init","dagFile":"E:/Unity/My project (1)/Library/Il2cppBuildCache/iOS/buildstate/bee.dag","targets":["FinalProgram"]}
{"msg":"enqueueNode","enqueuedNodeAnnotation":"FinalProgram","enqueuedNodeIndex":2}
{"msg":"enqueueNode","enqueuedNodeAnnotation":"IL2CPP_CodeGen E:/Unity/My project (1)/Library/Il2cppBuildCache/iOS/buildstate/artifacts/il2cpp_conv_e2do.traceevents","enqueuedNodeIndex":1,"enqueueingNodeAnnotation":"FinalProgram","enqueueingNodeIndex":2}
